var,class1,class2,code
edm_optin_flag,C,P,CP
emails_activated_l8w_flag,C,I,CI
emails_open_l8w_flag,C,I,CI
emails_click_l8w_flag,C,I,CI
has_rwdapp_flag,C,P,CP
rapp_browse_l8w_flag,C,I,CI
rapp_activated_l8w_flag,C,I,CI
boosted_supers_l8w_flag,E,I,EI
boosted_bigw_l8w_flag,E,I,EI
boosted_bws_l8w_flag,E,I,EI
boosted_caltex_l8w_flag,E,I,EI
boosted_fuelco_l8w_flag,E,I,EI
boosted_other_l8w_flag,E,I,EI
scan_supers_l12w_flag,E,I,EI
scan_bigw_l26w_flag,E,I,EI
scan_bws_l26w_flag,E,I,EI
scan_caltex_l12w_flag,E,I,EI
scan_eg_l12w_flag,E,I,EI
linked_wowonline_flag,C,P,CP
linked_bigwonline_flag,C,P,CP
linked_wowapp_flag,C,P,CP
linked_bws_onlineapp_flag,C,P,CP
linked_origin_flag,E,P,EP
linked_bupa_flag,E,P,EP
linked_caltex_flag,E,P,EP
linked_telco_onlineapp_flag,E,P,EP
linked_eg_flag,E,P,EP
linked_money_flag,E,P,EP
linked_superpharm_flag,E,P,EP
linked_facebook_flag,C,P,CP
linked_petculture_flag,E,P,EP
linked_giftcard_flag,E,P,EP
linked_healthylife_flag,E,P,EP
linked_qff_sfl,X,X,XX
linked_bfc_sfl,X,X,XX
linked_other_flag,E,P,EP
collect_l8w_flag,X,X,XX
insurance_flag,E,P,EP
